<?xml version="1.0" encoding="UTF-8"?>
<symbol version="7" name="CI74194">
    <symboltype>BLOCK</symboltype>
    <timestamp>2017-12-6T2:42:50</timestamp>
    <pin polarity="Input" x="0" y="-864" name="S0" />
    <pin polarity="Input" x="0" y="-800" name="S1" />
    <pin polarity="Input" x="0" y="-736" name="DSR" />
    <pin polarity="Input" x="0" y="-672" name="DSL" />
    <pin polarity="Input" x="0" y="-608" name="P0" />
    <pin polarity="Input" x="0" y="-544" name="P1" />
    <pin polarity="Input" x="0" y="-480" name="P2" />
    <pin polarity="Input" x="0" y="-416" name="P3" />
    <pin polarity="Input" x="0" y="-352" name="P4" />
    <pin polarity="Input" x="0" y="-288" name="P5" />
    <pin polarity="Input" x="0" y="-224" name="P6" />
    <pin polarity="Input" x="0" y="-160" name="P7" />
    <pin polarity="Input" x="0" y="-96" name="CLK" />
    <pin polarity="Input" x="0" y="-32" name="MR" />
    <pin polarity="BiDirectional" x="384" y="-864" name="Q0" />
    <pin polarity="BiDirectional" x="384" y="-752" name="Q1" />
    <pin polarity="BiDirectional" x="384" y="-640" name="Q2" />
    <pin polarity="BiDirectional" x="384" y="-528" name="Q3" />
    <pin polarity="BiDirectional" x="384" y="-416" name="Q4" />
    <pin polarity="BiDirectional" x="384" y="-304" name="Q5" />
    <pin polarity="BiDirectional" x="384" y="-192" name="Q6" />
    <pin polarity="BiDirectional" x="384" y="-80" name="Q7" />
    <graph>
        <rect width="256" x="64" y="-896" height="896" />
        <attrtext style="alignment:BCENTER;fontsize:56;fontname:Arial" attrname="SymbolName" x="192" y="-904" type="symbol" />
        <attrtext style="fontsize:24;fontname:Arial" attrname="PinName" x="72" y="-864" type="pin S0" />
        <line x2="0" y1="-864" y2="-864" x1="64" />
        <attrtext style="fontsize:24;fontname:Arial" attrname="PinName" x="72" y="-800" type="pin S1" />
        <line x2="0" y1="-800" y2="-800" x1="64" />
        <attrtext style="fontsize:24;fontname:Arial" attrname="PinName" x="72" y="-736" type="pin DSR" />
        <line x2="0" y1="-736" y2="-736" x1="64" />
        <attrtext style="fontsize:24;fontname:Arial" attrname="PinName" x="72" y="-672" type="pin DSL" />
        <line x2="0" y1="-672" y2="-672" x1="64" />
        <attrtext style="fontsize:24;fontname:Arial" attrname="PinName" x="72" y="-608" type="pin P0" />
        <line x2="0" y1="-608" y2="-608" x1="64" />
        <attrtext style="fontsize:24;fontname:Arial" attrname="PinName" x="72" y="-544" type="pin P1" />
        <line x2="0" y1="-544" y2="-544" x1="64" />
        <attrtext style="fontsize:24;fontname:Arial" attrname="PinName" x="72" y="-480" type="pin P2" />
        <line x2="0" y1="-480" y2="-480" x1="64" />
        <attrtext style="fontsize:24;fontname:Arial" attrname="PinName" x="72" y="-416" type="pin P3" />
        <line x2="0" y1="-416" y2="-416" x1="64" />
        <attrtext style="fontsize:24;fontname:Arial" attrname="PinName" x="72" y="-352" type="pin P4" />
        <line x2="0" y1="-352" y2="-352" x1="64" />
        <attrtext style="fontsize:24;fontname:Arial" attrname="PinName" x="72" y="-288" type="pin P5" />
        <line x2="0" y1="-288" y2="-288" x1="64" />
        <attrtext style="fontsize:24;fontname:Arial" attrname="PinName" x="72" y="-224" type="pin P6" />
        <line x2="0" y1="-224" y2="-224" x1="64" />
        <attrtext style="fontsize:24;fontname:Arial" attrname="PinName" x="72" y="-160" type="pin P7" />
        <line x2="0" y1="-160" y2="-160" x1="64" />
        <attrtext style="fontsize:24;fontname:Arial" attrname="PinName" x="72" y="-96" type="pin CLK" />
        <line x2="0" y1="-96" y2="-96" x1="64" />
        <attrtext style="fontsize:24;fontname:Arial" attrname="PinName" x="72" y="-32" type="pin MR" />
        <line x2="0" y1="-32" y2="-32" x1="64" />
        <attrtext style="alignment:RIGHT;fontsize:24;fontname:Arial" attrname="PinName" x="312" y="-864" type="pin Q0" />
        <line x2="384" y1="-864" y2="-864" x1="320" />
        <attrtext style="alignment:RIGHT;fontsize:24;fontname:Arial" attrname="PinName" x="312" y="-752" type="pin Q1" />
        <line x2="384" y1="-752" y2="-752" x1="320" />
        <attrtext style="alignment:RIGHT;fontsize:24;fontname:Arial" attrname="PinName" x="312" y="-640" type="pin Q2" />
        <line x2="384" y1="-640" y2="-640" x1="320" />
        <attrtext style="alignment:RIGHT;fontsize:24;fontname:Arial" attrname="PinName" x="312" y="-528" type="pin Q3" />
        <line x2="384" y1="-528" y2="-528" x1="320" />
        <attrtext style="alignment:RIGHT;fontsize:24;fontname:Arial" attrname="PinName" x="312" y="-416" type="pin Q4" />
        <line x2="384" y1="-416" y2="-416" x1="320" />
        <attrtext style="alignment:RIGHT;fontsize:24;fontname:Arial" attrname="PinName" x="312" y="-304" type="pin Q5" />
        <line x2="384" y1="-304" y2="-304" x1="320" />
        <attrtext style="alignment:RIGHT;fontsize:24;fontname:Arial" attrname="PinName" x="312" y="-192" type="pin Q6" />
        <line x2="384" y1="-192" y2="-192" x1="320" />
        <attrtext style="alignment:RIGHT;fontsize:24;fontname:Arial" attrname="PinName" x="312" y="-80" type="pin Q7" />
        <line x2="384" y1="-80" y2="-80" x1="320" />
    </graph>
</symbol>
